<svg xmlns="http://www.w3.org/2000/svg" xmlns:xlink="http://www.w3.org/1999/xlink" x="0px" y="0px" width="160.5px" height="52.8px" viewBox="0 0 160.5 52.8">
	<style type="text/css">
		.st0{fill:#CCCCCC;} .st1{clip-path:url(#SVGID_2_);} .st2{fill:url(#SVGID_3_);} .st3{clip-path:url(#SVGID_5_);} .st4{fill:url(#SVGID_6_);} .st5{clip-path:url(#SVGID_8_);}
		.st6{fill:url(#SVGID_9_);} .st7{clip-path:url(#SVGID_11_);} .st8{fill:url(#SVGID_12_);} .st9{fill:#666666;}
	</style>
	<g id="sidebar">
		<path class="st0" d="M153.2,52.8H7.3c-4.1,0-7.3-3.3-7.3-7.3V7.3C0,3.3,3.2,0,7.2,0c0.1,0,0.1,0,0.2,0h145.9c4,0,7.3,3.2,7.3,7.2
		c0,0.1,0,0.1,0,0.2v38.2C160.5,49.5,157.3,52.8,153.2,52.8z M7.3,0.5c-3.7,0-6.8,3-6.8,6.7c0,0,0,0.1,0,0.1v38.2
		c0,3.8,3.1,6.8,6.8,6.8h145.9c3.8,0,6.8-3.1,6.8-6.8V7.3c0.1-3.7-2.9-6.8-6.6-6.8c0,0-0.1,0-0.1,0H7.3z"/>
		<g id="PLAY">
			<g>
				<defs>
					<path id="SVGID_1_" d="M34.9,23.3l-7.2-4.2l-13.9-8.1c-0.8-0.4-1.5-0.2-1.5,0.8v32.7c0,0.7,0.6,1,1.2,0.6S27.7,37,27.7,37
					l7.2-4.2c0,0,6.1-3.5,6.9-4s0.7-1.1,0.1-1.5S34.9,23.3,34.9,23.3z"/>
				</defs>
				<clipPath id="SVGID_2_">
					<use xlink:href="#SVGID_1_" style="overflow:visible;"/>
				</clipPath>
				<g class="st1">
					<linearGradient id="SVGID_3_" gradientUnits="userSpaceOnUse" x1="21.21" y1="-7611.21" x2="21.21" y2="-7575.7598" gradientTransform="matrix(1 0 0 1 0 7621.5098)">
						<stop offset="0" style="stop-color:#257CB0"/>
						<stop offset="0.29" style="stop-color:#4A93B5"/>
						<stop offset="0.77" style="stop-color:#78BCBB"/>
						<stop offset="1" style="stop-color:#89CFBD"/>
					</linearGradient>
					<polygon class="st2" points="12.3,10.3 12.3,28 12.3,45.8 30.1,28"/>
				</g>
			</g>
			<g>
				<defs>
					<path id="SVGID_4_" d="M34.9,23.3l-7.2-4.2l-13.9-8.1c-0.8-0.4-1.5-0.2-1.5,0.8v32.7c0,0.7,0.6,1,1.2,0.6S27.7,37,27.7,37
					l7.2-4.2c0,0,6.1-3.5,6.9-4s0.7-1.1,0.1-1.5S34.9,23.3,34.9,23.3z"/>
				</defs>
				<clipPath id="SVGID_5_">
					<use xlink:href="#SVGID_4_" style="overflow:visible;"/>
				</clipPath>
				<g class="st3">

					<linearGradient id="SVGID_6_" gradientUnits="userSpaceOnUse" x1="12.25" y1="-7602.4097" x2="34.91" y2="-7602.4097" gradientTransform="matrix(1 0 0 1 0 7621.5098)">
						<stop offset="0" style="stop-color:#52C1AD"/>
						<stop offset="1" style="stop-color:#DEE89A"/>
					</linearGradient>
					<polygon class="st4" points="34.9,23.3 27.7,19.1 12.3,10.2 12.3,10.3 30.1,28"/>
				</g>
			</g>
			<g>
				<defs>
					<path id="SVGID_7_" d="M34.9,23.3l-7.2-4.2l-13.9-8.1c-0.8-0.4-1.5-0.2-1.5,0.8v32.7c0,0.7,0.6,1,1.2,0.6S27.7,37,27.7,37
					l7.2-4.2c0,0,6.1-3.5,6.9-4s0.7-1.1,0.1-1.5S34.9,23.3,34.9,23.3z"/>
				</defs>
				<clipPath id="SVGID_8_">
					<use xlink:href="#SVGID_7_" style="overflow:visible;"/>
				</clipPath>
				<g class="st5">
					<linearGradient id="SVGID_9_" gradientUnits="userSpaceOnUse" x1="23.61" y1="-7593.46" x2="23.61" y2="-7575.6099" gradientTransform="matrix(1 0 0 1 0 7621.5098)">
						<stop offset="0" style="stop-color:#EC413D"/>
						<stop offset="0.17" style="stop-color:#DA4452"/>
						<stop offset="0.57" style="stop-color:#B0487A"/>
						<stop offset="0.86" style="stop-color:#954A92"/>
						<stop offset="1" style="stop-color:#8A4A9D"/>
					</linearGradient>
					<polygon class="st6" points="12.3,45.8 12.3,45.9 27.7,37 34.9,32.8 30.1,28"/>
				</g>
			</g>
			<g>
				<defs>
					<path id="SVGID_10_" d="M34.9,23.3l-7.2-4.2l-13.9-8.1c-0.8-0.4-1.5-0.2-1.5,0.8v32.7c0,0.7,0.6,1,1.2,0.6S27.7,37,27.7,37
					l7.2-4.2c0,0,6.1-3.5,6.9-4s0.7-1.1,0.1-1.5S34.9,23.3,34.9,23.3z"/>
				</defs>
				<clipPath id="SVGID_11_">
					<use xlink:href="#SVGID_10_" style="overflow:visible;"/>
				</clipPath>
				<g class="st7">
					<linearGradient id="SVGID_12_" gradientUnits="userSpaceOnUse" x1="36.665" y1="-7598.2197" x2="36.665" y2="-7588.6997" gradientTransform="matrix(1 0 0 1 0 7621.5098)">
						<stop offset="0" style="stop-color:#F58879"/>
						<stop offset="0.12" style="stop-color:#F69079"/>
						<stop offset="0.71" style="stop-color:#FCB877"/>
						<stop offset="1" style="stop-color:#FEC874"/>
					</linearGradient>
					<polygon class="st8" points="34.9,23.3 30.1,28 34.9,32.8 43.2,28"/>
				</g>
			</g>
		</g>
		<path class="st9" d="M124.8,35c-0.6,0-1.3-0.1-1.8-0.4c-0.6-0.3-1-0.6-1.4-1.2h-0.1c0.1,0.6,0.1,1.1,0.1,1.7v4.2H120V24.5h1.3
		l0.2,1.4h0.1c0.4-0.5,0.8-0.9,1.4-1.2c0.6-0.3,1.2-0.4,1.8-0.4c1.2-0.1,2.4,0.4,3.1,1.4c0.8,1.1,1.2,2.5,1.1,3.9
		c0.1,1.4-0.3,2.8-1.2,4C127.1,34.5,126,35.1,124.8,35z M124.5,25.6c-0.9-0.1-1.7,0.3-2.3,0.9c-0.5,0.8-0.8,1.8-0.7,2.8v0.3
		c-0.1,1.1,0.2,2.2,0.7,3.1c0.6,0.7,1.4,1.1,2.3,1c0.8,0,1.6-0.4,2.1-1.1c0.6-0.9,0.8-1.9,0.8-3c0.1-1-0.2-2.1-0.8-3
		C126.2,26,125.4,25.6,124.5,25.6z"/>
		<path class="st9" d="M132.7,34.8h-1.5V20.1h1.5V34.8z"/>
		<path class="st9" d="M141.6,34.8l-0.3-1.5h-0.1c-0.4,0.6-0.9,1-1.5,1.3c-0.6,0.3-1.3,0.4-1.9,0.3c-0.9,0-1.7-0.2-2.4-0.8
		c-0.6-0.6-0.9-1.4-0.9-2.2c0-2.1,1.7-3.2,5-3.3l1.7-0.1V28c0-0.6-0.1-1.3-0.5-1.8c-0.4-0.4-1.1-0.6-1.7-0.6c-1,0-2,0.3-2.9,0.8
		l-0.4-1.2c0.5-0.3,1.1-0.5,1.7-0.6c0.6-0.2,1.2-0.2,1.8-0.3c1-0.1,2,0.2,2.8,0.8c0.6,0.7,1,1.7,0.9,2.6v7L141.6,34.8z M138.1,33.7
		c0.8,0,1.7-0.2,2.3-0.8c0.6-0.6,0.9-1.4,0.8-2.2v-1l-1.5,0.1c-0.9,0-1.8,0.2-2.7,0.6c-0.6,0.3-0.9,1-0.8,1.6c0,0.5,0.2,1,0.5,1.3
		C137.1,33.5,137.6,33.7,138.1,33.7z"/>
		<path class="st9" d="M143.7,24.5h1.7l2.2,5.9c0.4,0.9,0.7,1.9,0.9,2.9h0.1c0.1-0.6,0.3-1.1,0.5-1.7c0.3-0.8,1.1-3.1,2.6-7.2h1.7
		l-4.4,11.7c-0.3,0.9-0.8,1.8-1.5,2.5c-0.6,0.5-1.4,0.8-2.2,0.7c-0.5,0-0.9-0.1-1.4-0.1V38c0.4,0.1,0.8,0.1,1.1,0.1
		c1.1,0,2-0.7,2.3-1.8l0.6-1.5L143.7,24.5z"/>
		<path class="st9" d="M95.9,25.5c0.9,0.7,1.5,1.7,1.5,2.9c0,1.3-0.7,2.4-1.8,3.1c-0.4,0.3-0.6,0.7-0.6,1.1c0,0.4,0.3,0.7,0.6,0.9
		l0.8,0.6c1.1,0.6,1.7,1.8,1.8,3c0,2-2,4.1-5.7,4.1c-3.1,0-4.6-1.5-4.6-3.1c0-1.1,0.7-2.1,1.7-2.6c1.3-0.6,2.7-1,4.1-1
		C93.2,34,93,33.4,93,32.9c0-0.3,0.1-0.6,0.2-0.8c-0.3,0-0.4,0.1-0.7,0.1c-1.9,0.1-3.5-1.4-3.6-3.3c0,0,0-0.1,0-0.1
		c0-1.1,0.5-2.2,1.4-2.9c1.1-0.9,2.5-1.3,3.8-1.2h4.4l-1.4,0.8L95.9,25.5L95.9,25.5z M94.3,35h-0.5c-0.8,0-1.5,0.1-2.2,0.3
		c-1,0.3-1.8,1.2-1.9,2.2c0,1.5,1.5,2.6,3.8,2.6c2,0,3.2-1,3.2-2.3S95.9,36.2,94.3,35z M95,30.9c0.4-0.4,0.6-1,0.5-1.6
		c0-1.5-0.9-4-2.7-4c-0.6,0-1.1,0.3-1.5,0.7c-0.3,0.5-0.5,1-0.4,1.6c0,1.5,0.8,3.8,2.7,3.8C94.1,31.5,94.6,31.3,95,30.9z"/>
		<path class="st9" d="M82.3,34.7c-2.8,0.1-5.2-2.1-5.2-4.9c0,0,0-0.1,0-0.1c0.1-3,2.5-5.3,5.4-5.3c0,0,0.1,0,0.1,0
		c2.8-0.1,5.1,2.1,5.1,4.9c0,0.1,0,0.1,0,0.2c0,2.9-2.3,5.2-5.2,5.3C82.5,34.7,82.4,34.7,82.3,34.7z M85,33c0.5-0.7,0.7-1.5,0.6-2.4
		c0-1.9-0.9-5.5-3.6-5.5c-0.7,0-1.4,0.3-1.9,0.7c-0.7,0.7-1.1,1.6-1,2.6c0,2.1,1,5.6,3.7,5.6C83.6,34.1,84.5,33.7,85,33z"/>
		<path class="st9" d="M70.6,34.7c-2.8,0.1-5.2-2.1-5.2-4.9c0,0,0-0.1,0-0.1c0.1-3,2.5-5.3,5.4-5.3c0,0,0.1,0,0.1,0
		c2.8,0,5,2.1,5.1,4.9c0,0,0,0.1,0,0.1c0,2.9-2.3,5.2-5.1,5.3C70.8,34.7,70.7,34.7,70.6,34.7z M73.3,33c0.5-0.7,0.7-1.5,0.6-2.4
		c0-1.9-0.9-5.5-3.6-5.5c-0.7,0-1.4,0.3-1.9,0.7c-0.7,0.7-1.1,1.6-1,2.6c0,2.1,1,5.6,3.7,5.6C71.9,34.1,72.7,33.7,73.3,33z"/>
		<path class="st9" d="M63.7,34.3L60.7,35c-1.2,0.2-2.4,0.4-3.6,0.4c-6,0-8.3-4.4-8.3-7.8c0-4.2,3.2-8.1,8.8-8.1
		c1.1,0,2.2,0.2,3.3,0.5c1,0.3,2,0.7,2.9,1.4L62,23l-0.8,0.2l0.5-0.9c-1.2-1.3-2.9-2-4.6-2c-3.4,0-6,2.6-6,6.4
		c-0.1,4.2,3.1,7.7,7.3,7.9c0.1,0,0.2,0,0.3,0c0.9,0,1.9-0.2,2.7-0.6v-3.4l-3.3,0.2l1.7-1h4.6L64,30.3c-0.1,0.1-0.2,0.2-0.2,0.3
		s-0.1,0.8-0.1,1L63.7,34.3z"/>
		<path class="st9" d="M102.7,33.7c-0.7-0.1-0.8-0.2-0.8-1V20.3c0.1-0.8,0.3-0.9,1-1.3h-3.1l-1.6,0.8h1.7v13.4c0,0.4-0.1,0.5-0.6,1.2
		h3.8l0.8-0.5C103.4,33.8,103,33.7,102.7,33.7z"/>
		<path class="st9" d="M111.5,33.9l-0.7,0.4c-0.7,0.3-1.4,0.4-2.1,0.4c-1,0-2-0.2-2.9-0.8c-1.4-1.1-2.2-2.8-2.2-4.5
		c-0.1-2.7,2.1-4.9,4.8-5c0.1,0,0.1,0,0.2,0c0.8,0,1.6,0.2,2.2,0.6c0.8,0.5,1.3,1.2,1.5,2.1l-5.1,2l-1.7,0.1
		c0.5,2.8,2.4,4.3,4.4,4.3c0.9,0,1.8-0.3,2.6-0.8L111.5,33.9z M109.5,27.5c0.4-0.1,0.6-0.3,0.6-0.6c-0.1-1.1-1.1-1.9-2.1-1.9
		c-0.8,0-2.5,0.6-2.5,3c0,0.4,0.1,0.8,0.1,1.1L109.5,27.5z"/>
		<path class="st9" d="M113.6,24.5v1.4h-0.2v-1.4H113v-0.1h1v0.1H113.6z"/>
		<path class="st9" d="M115.5,25.9v-1.4l0,0l-0.4,1.4h-0.1l-0.4-1.4l0,0v1.4h-0.1v-1.5h0.3l0.4,1.3l0,0l0.4-1.3h0.3v1.5H115.5z"/>
		<path class="st9" d="M53.1,15.3H52c-0.1-0.4-0.2-0.9-0.3-1.3h-1.5c-0.1,0.4-0.2,0.8-0.3,1.3h-1c0-0.1,0.3-0.8,0.8-2.2
		c0.3-0.7,0.6-1.5,0.8-2.2h1.3c0,0.1,0.3,0.8,0.7,2.2C52.7,13.8,52.9,14.5,53.1,15.3z M51.6,13.4c-0.4-1.1-0.6-1.8-0.6-1.9h-0.1
		c0,0.1-0.2,0.7-0.6,1.9H51.6z"/>
		<path class="st9" d="M57.5,15.3h-0.8c-0.3-0.5-0.6-1-0.9-1.5c-0.5-0.6-0.8-1.2-1.1-1.9h-0.1c0,0.4,0.1,0.9,0.1,1.3
		c0,0.6,0,1.2,0.1,2h-0.8c0.1-0.7,0.1-1.5,0.1-2.3c0-0.7,0-1.4-0.1-2.1h1c0.2,0.5,0.5,1,0.8,1.4c0.4,0.6,0.7,1.2,1,1.8h0.1
		c-0.1-0.4-0.1-0.9-0.1-1.3c0-0.6,0-1.2-0.1-1.9h0.8c0,0.6-0.1,1.3-0.1,2.1C57.4,13.7,57.4,14.5,57.5,15.3z"/>
		<path class="st9" d="M62.3,12.9c0,0.6-0.2,1.2-0.6,1.7c-0.4,0.5-1.1,0.7-1.7,0.7c-0.4,0-0.9,0-1.3-0.1c0-0.7,0.1-1.4,0.1-2.3
		s0-1.5-0.1-2.1H60c0.6-0.1,1.3,0.1,1.7,0.6C62.1,11.8,62.3,12.4,62.3,12.9z M61.3,13.1c0-0.4-0.1-0.7-0.3-1.1
		c-0.3-0.3-0.7-0.5-1.2-0.4h-0.4c0,0.4,0.1,0.9,0.1,1.4c0,0.5,0,1.1,0.1,1.6c0.1,0,0.3,0.1,0.5,0.1c0.4,0,0.8-0.1,1.1-0.4
		C61.3,13.8,61.4,13.4,61.3,13.1L61.3,13.1z"/>
		<path class="st9" d="M66.8,15.3h-1c-0.1-0.5-0.3-1-0.6-1.5c-0.2-0.2-0.4-0.3-0.7-0.3h-0.4v1.7h-1c0-0.7,0.1-1.4,0.1-2.3
		c0-0.7,0-1.4-0.1-2.1h1.6c1,0,1.5,0.3,1.5,1c0,0.5-0.4,1-0.9,1.1v0.1c0.3,0.1,0.5,0.3,0.6,0.5C66.3,14.1,66.6,14.7,66.8,15.3z
		 M65.5,12.1c0-0.4-0.3-0.6-0.8-0.6c-0.2,0-0.4,0-0.6,0.1c0,0.3,0.1,0.8,0.1,1.3h0.3C65.2,12.9,65.5,12.7,65.5,12.1z"/>
		<path class="st9" d="M71.6,13c0,0.6-0.2,1.2-0.6,1.7c-0.4,0.4-1,0.7-1.5,0.7c-0.6,0-1.1-0.2-1.5-0.6c-0.4-0.4-0.6-1-0.6-1.6
		c-0.1-0.6,0.2-1.3,0.6-1.7c0.4-0.4,0.9-0.7,1.5-0.7c0.6,0,1.1,0.2,1.5,0.6C71.4,11.8,71.6,12.4,71.6,13z M70.7,13.1
		c0-0.4-0.1-0.8-0.4-1.1c-0.2-0.3-0.5-0.5-0.9-0.4c-0.3,0-0.6,0.2-0.8,0.4c-0.2,0.3-0.3,0.7-0.3,1.1c0,0.4,0.1,0.8,0.4,1.1
		c0.2,0.3,0.5,0.5,0.9,0.4c0.3,0,0.6-0.2,0.8-0.4C70.6,13.9,70.7,13.5,70.7,13.1L70.7,13.1z"/>
		<path class="st9" d="M73.5,15.3h-1c0-0.7,0.1-1.5,0.1-2.3s0-1.5-0.1-2.1h1c0,0.6-0.1,1.3-0.1,2.1S73.5,14.6,73.5,15.3z"/>
		<path class="st9" d="M78.4,12.9c0,0.6-0.2,1.2-0.6,1.7c-0.4,0.5-1.1,0.7-1.7,0.7c-0.5,0-0.9,0-1.3-0.1c0-0.7,0.1-1.4,0.1-2.3
		c0-0.7,0-1.4-0.1-2.1h1.4c0.6-0.1,1.3,0.1,1.7,0.6C78.2,11.8,78.4,12.4,78.4,12.9z M77.5,13.1c0-0.4-0.1-0.8-0.4-1.1
		c-0.3-0.3-0.7-0.5-1.1-0.5h-0.4c0,0.4,0.1,0.9,0.1,1.4c0,0.5,0,1.1,0.1,1.6c0.1,0,0.3,0.1,0.4,0.1c0.4,0,0.8-0.1,1.1-0.4
		C77.4,13.8,77.5,13.4,77.5,13.1z"/>
		<path class="st9" d="M84.9,15.3h-1.1c-0.1-0.4-0.2-0.9-0.3-1.3h-1.5c-0.1,0.4-0.2,0.8-0.3,1.3h-1c0-0.1,0.3-0.8,0.8-2.2
		c0.3-0.7,0.6-1.5,0.8-2.2h1.3c0,0.1,0.3,0.8,0.7,2.2C84.4,13.8,84.7,14.5,84.9,15.3z M83.3,13.4c-0.4-1.1-0.6-1.8-0.6-1.9h-0.1
		c0,0.1-0.2,0.7-0.6,1.9H83.3z"/>
		<path class="st9" d="M88.8,12c0,0.5-0.2,0.9-0.6,1.2c-0.4,0.3-1,0.4-1.5,0.4h-0.3c0,0.4,0,1,0.1,1.7h-1c0-0.6,0.1-1.4,0.1-2.3
		c0-0.7,0-1.4-0.1-2.1h1.7c0.4,0,0.8,0.1,1.1,0.3C88.6,11.3,88.8,11.6,88.8,12z M87.9,12.2c0-0.4-0.3-0.7-1-0.7
		c-0.2,0-0.3,0-0.5,0.1c0,0.4,0.1,0.9,0.1,1.4h0.2C87.5,13,87.9,12.7,87.9,12.2L87.9,12.2z"/>
		<path class="st9" d="M92.8,12c0,0.5-0.2,0.9-0.6,1.2c-0.4,0.3-1,0.4-1.5,0.4h-0.3c0,0.4,0,1,0.1,1.7h-1c0-0.6,0.1-1.4,0.1-2.3
		c0-0.7,0-1.4-0.1-2.1h1.7c0.4,0,0.8,0.1,1.1,0.3C92.6,11.3,92.8,11.6,92.8,12z M91.9,12.2c0-0.4-0.3-0.7-1-0.7
		c-0.2,0-0.3,0-0.5,0.1c0,0.4,0.1,0.9,0.1,1.4h0.2C91.5,13,91.9,12.7,91.9,12.2L91.9,12.2z"/>
		<path class="st9" d="M99.4,13c0,0.6-0.2,1.3-0.6,1.7c-0.4,0.4-1,0.7-1.5,0.7c-0.6,0-1.1-0.2-1.5-0.6c-0.4-0.4-0.6-1-0.6-1.6
		c0-0.6,0.2-1.3,0.6-1.7c0.4-0.4,1-0.7,1.5-0.7c0.6,0,1.1,0.2,1.5,0.6C99.2,11.8,99.4,12.4,99.4,13z M98.4,13.1
		c0-0.4-0.1-0.8-0.4-1.1c-0.3-0.5-1-0.6-1.5-0.3c-0.1,0.1-0.2,0.2-0.3,0.3c-0.2,0.3-0.3,0.7-0.3,1.1c0,0.4,0.1,0.8,0.4,1.1
		c0.3,0.5,1,0.6,1.5,0.3c0.1-0.1,0.2-0.2,0.3-0.3C98.4,13.9,98.5,13.5,98.4,13.1L98.4,13.1z"/>
		<path class="st9" d="M103.9,15.3h-0.8c-0.3-0.5-0.6-1-0.9-1.5c-0.5-0.6-0.8-1.2-1.1-1.9h-0.1c0,0.4,0.1,0.9,0.1,1.3
		c0,0.6,0,1.2,0.1,2h-0.8c0.1-0.7,0.1-1.5,0.1-2.3s0-1.5-0.1-2.1h1c0.2,0.5,0.5,1,0.8,1.4c0.4,0.6,0.7,1.2,1,1.8h0.1
		c0-0.4-0.1-0.9-0.1-1.3c0-0.6,0-1.2-0.1-1.9h0.9c0,0.6-0.1,1.3-0.1,2.1S103.9,14.6,103.9,15.3z"/>
	</g>
</svg>
